Pluralsight Data Scientist Take-Home Exercise
…
## # A tibble: 2 x 2
##   rd_threshold `n()`
##          <dbl> <int>
## 1            0  1608
## 2            1  5070

## # A tibble: 32 x 3
## # Groups:   rd_threshold [?]
##    rd_threshold n_questions_answered `n()`
##           <dbl>                <int> <int>
##  1            0                    0   271
##  2            0                    1   211
##  3            0                    2   189
##  4            0                    3   165
##  5            0                    4   112
##  6            0                    5   127
##  7            0                    6   101
##  8            0                    7   100
##  9            0                    8    70
## 10            0                    9    54
## # ... with 22 more rows
…
